{
	"json": [
		{
			"loglevel": "2",
			"seen": null,
			"id": 279,
			"aanvrager_id": null,
			"is_bericht": null,
			"betrokkene_id": "betrokkene-medewerker-500001",
			"info": {
				"zaaktype_kenmerken_id": null,
				"searchable_id": 105,
				"verplicht": null,
				"uuid": null,
				"catalogus": null,
				"pid": null,
				"betrokkene": null,
				"zaakstatus": 1,
				"id": 2,
				"category": "Advies",
				"pip": null,
				"zaak_id": 80,
				"last_modified": "2012-10-03 11:43:17",
				"private": null,
				"description": null,
				"filesize": 257582,
				"documenttype": "file",
				"queue": null,
				"versie": 1,
				"md5": "7bafe62b61ff890772459e7137459b29",
				"deleted_on": null,
				"search_term": "Doc1.docx 2",
				"object_type": "documents",
				"status": null,
				"search_index": null,
				"post_registratie": null,
				"ontvangstdatum": "2012-10-03 00:00:00",
				"help": "sdsdsd",
				"betrokkene_id": "betrokkene-medewerker-500001",
				"dagtekeningdatum": null,
				"created": "2012-10-03 11:43:17",
				"filename": "Doc1.docx",
				"mimetype": "application/vnd.openxmlformats-officedocument.wordprocessingml.document",
				"option_order": null
			},
			"event_data": null,
			"event_type": null,
			"zaak_id": 80,
			"last_modified": 1349264597,
			"component_id": 2,
			"bericht": null,
			"created": 1349271797,
			"onderwerp": "Document \"Doc1.docx\" [2] succesvol aangemaakt",
			"component": "document",
			"deleted_on": null
		},
		{
			"loglevel": "2",
			"seen": null,
			"id": 287,
			"aanvrager_id": null,
			"is_bericht": null,
			"betrokkene_id": "betrokkene-medewerker-500001",
			"info": {
				"zaaktype_kenmerken_id": 32,
				"searchable_id": 109,
				"verplicht": null,
				"uuid": null,
				"catalogus": 32,
				"pid": null,
				"betrokkene": null,
				"zaakstatus": 1,
				"id": 3,
				"category": "Advies",
				"pip": null,
				"zaak_id": 97,
				"last_modified": "2012-10-03 12:01:49",
				"private": null,
				"description": null,
				"filesize": 257582,
				"documenttype": "file",
				"queue": null,
				"versie": 1,
				"md5": "7bafe62b61ff890772459e7137459b29",
				"deleted_on": null,
				"search_term": "Doc1.docx 3",
				"object_type": "documents",
				"status": null,
				"search_index": null,
				"post_registratie": null,
				"ontvangstdatum": null,
				"help": null,
				"betrokkene_id": "betrokkene-medewerker-500001",
				"dagtekeningdatum": null,
				"created": "2012-10-03 12:01:49",
				"filename": "Doc1.docx",
				"mimetype": "application/vnd.openxmlformats-officedocument.wordprocessingml.document",
				"option_order": null
			},
			"event_data": null,
			"event_type": null,
			"zaak_id": 97,
			"last_modified": 1349265709,
			"component_id": 3,
			"bericht": null,
			"created": 1349272909,
			"onderwerp": "Document \"Doc1.docx\" [3] succesvol aangemaakt",
			"component": "document",
			"deleted_on": null
		},
		{
			"loglevel": "2",
			"seen": null,
			"id": 332,
			"aanvrager_id": null,
			"is_bericht": null,
			"betrokkene_id": "betrokkene-medewerker-500001",
			"info": {
				"zaaktype_kenmerken_id": null,
				"searchable_id": 125,
				"verplicht": null,
				"uuid": null,
				"catalogus": null,
				"pid": null,
				"betrokkene": null,
				"zaakstatus": 1,
				"id": 7,
				"category": "Advies",
				"pip": null,
				"zaak_id": 107,
				"last_modified": "2012-10-09 12:55:42",
				"private": null,
				"description": null,
				"filesize": 257582,
				"documenttype": "file",
				"queue": null,
				"versie": 1,
				"md5": "7bafe62b61ff890772459e7137459b29",
				"deleted_on": null,
				"search_term": "Doc1.docx 7",
				"object_type": "documents",
				"status": null,
				"search_index": null,
				"post_registratie": null,
				"ontvangstdatum": "2012-10-09 00:00:00",
				"help": null,
				"betrokkene_id": "betrokkene-medewerker-500001",
				"dagtekeningdatum": null,
				"created": "2012-10-09 12:55:42",
				"filename": "Doc1.docx",
				"mimetype": "application/vnd.openxmlformats-officedocument.wordprocessingml.document",
				"option_order": null
			},
			"event_data": null,
			"event_type": null,
			"zaak_id": 107,
			"last_modified": 1349787342,
			"component_id": 7,
			"bericht": null,
			"created": 1349794542,
			"onderwerp": "Document \"Doc1.docx\" [7] succesvol aangemaakt",
			"component": "document",
			"deleted_on": null
		},
		{
			"loglevel": "2",
			"seen": null,
			"id": 338,
			"aanvrager_id": null,
			"is_bericht": null,
			"betrokkene_id": "betrokkene-medewerker-500001",
			"info": {
				"zaaktype_kenmerken_id": 49,
				"searchable_id": 127,
				"verplicht": null,
				"uuid": null,
				"catalogus": 49,
				"pid": null,
				"betrokkene": null,
				"zaakstatus": 1,
				"id": 8,
				"category": "Advies",
				"pip": null,
				"zaak_id": 108,
				"last_modified": "2012-10-10 15:34:44",
				"private": null,
				"description": null,
				"filesize": 257582,
				"documenttype": "file",
				"queue": null,
				"versie": 1,
				"md5": "7bafe62b61ff890772459e7137459b29",
				"deleted_on": null,
				"search_term": "Doc1.docx 8",
				"object_type": "documents",
				"status": null,
				"search_index": null,
				"post_registratie": null,
				"ontvangstdatum": null,
				"help": null,
				"betrokkene_id": "betrokkene-medewerker-500001",
				"dagtekeningdatum": null,
				"created": "2012-10-10 15:34:44",
				"filename": "Doc1.docx",
				"mimetype": "application/vnd.openxmlformats-officedocument.wordprocessingml.document",
				"option_order": null
			},
			"event_data": null,
			"event_type": null,
			"zaak_id": 108,
			"last_modified": 1349883284,
			"component_id": 8,
			"bericht": null,
			"created": 1349890484,
			"onderwerp": "Document \"Doc1.docx\" [8] succesvol aangemaakt",
			"component": "document",
			"deleted_on": null
		},
		{
			"loglevel": "2",
			"seen": null,
			"id": 342,
			"aanvrager_id": null,
			"is_bericht": null,
			"betrokkene_id": "betrokkene-medewerker-500001",
			"info": {
				"zaaktype_kenmerken_id": null,
				"searchable_id": 128,
				"verplicht": null,
				"uuid": null,
				"catalogus": null,
				"pid": null,
				"betrokkene": null,
				"zaakstatus": 1,
				"id": 9,
				"category": "Advies",
				"pip": null,
				"zaak_id": 108,
				"last_modified": "2012-10-10 15:34:58",
				"private": null,
				"description": null,
				"filesize": 194628,
				"documenttype": "file",
				"queue": null,
				"versie": 1,
				"md5": "3a4a493bc5c0e7764e4bfbd264672deb",
				"deleted_on": null,
				"search_term": "Screen_Shot_2012-10-04_at_1.55.41_PM.png 9",
				"object_type": "documents",
				"status": null,
				"search_index": null,
				"post_registratie": null,
				"ontvangstdatum": "2012-10-10 00:00:00",
				"help": null,
				"betrokkene_id": "betrokkene-medewerker-500001",
				"dagtekeningdatum": null,
				"created": "2012-10-10 15:34:58",
				"filename": "Screen_Shot_2012-10-04_at_1.55.41_PM.png",
				"mimetype": "image/png",
				"option_order": null
			},
			"event_data": null,
			"event_type": null,
			"zaak_id": 108,
			"last_modified": 1349883298,
			"component_id": 9,
			"bericht": null,
			"created": 1349890498,
			"onderwerp": "Document \"Screen_Shot_2012-10-04_at_1.55.41_PM.png\" [9] succesvol aangemaakt",
			"component": "document",
			"deleted_on": null
		},
		{
			"loglevel": "2",
			"seen": null,
			"id": 348,
			"aanvrager_id": null,
			"is_bericht": null,
			"betrokkene_id": "betrokkene-medewerker-500001",
			"info": {
				"zaaktype_kenmerken_id": 49,
				"searchable_id": 130,
				"verplicht": null,
				"uuid": null,
				"catalogus": 49,
				"pid": null,
				"betrokkene": null,
				"zaakstatus": 1,
				"id": 10,
				"category": "Advies",
				"pip": null,
				"zaak_id": 109,
				"last_modified": "2012-10-10 16:05:43",
				"private": null,
				"description": null,
				"filesize": 42495,
				"documenttype": "file",
				"queue": null,
				"versie": 1,
				"md5": "b6049e5f3fddd9a6bd5286bbf4cc7fc2",
				"deleted_on": null,
				"search_term": "Screen_Shot_2012-10-04_at_11.05.16_AM.png 10",
				"object_type": "documents",
				"status": null,
				"search_index": null,
				"post_registratie": null,
				"ontvangstdatum": null,
				"help": null,
				"betrokkene_id": "betrokkene-medewerker-500001",
				"dagtekeningdatum": null,
				"created": "2012-10-10 16:05:43",
				"filename": "Screen_Shot_2012-10-04_at_11.05.16_AM.png",
				"mimetype": "image/png",
				"option_order": null
			},
			"event_data": null,
			"event_type": null,
			"zaak_id": 109,
			"last_modified": 1349885143,
			"component_id": 10,
			"bericht": null,
			"created": 1349892343,
			"onderwerp": "Document \"Screen_Shot_2012-10-04_at_11.05.16_AM.png\" [10] succesvol aangemaakt",
			"component": "document",
			"deleted_on": null
		},
		{
			"loglevel": "2",
			"seen": null,
			"id": 370,
			"aanvrager_id": null,
			"is_bericht": null,
			"betrokkene_id": "betrokkene-medewerker-500001",
			"info": {
				"zaaktype_kenmerken_id": 73,
				"searchable_id": 133,
				"verplicht": null,
				"uuid": null,
				"catalogus": 73,
				"pid": null,
				"betrokkene": null,
				"zaakstatus": 1,
				"id": 11,
				"category": "Advies",
				"pip": null,
				"zaak_id": 111,
				"last_modified": "2012-10-16 12:06:49",
				"private": null,
				"description": null,
				"filesize": 257582,
				"documenttype": "file",
				"queue": null,
				"versie": 1,
				"md5": "7bafe62b61ff890772459e7137459b29",
				"deleted_on": null,
				"search_term": "Doc1.docx 11",
				"object_type": "documents",
				"status": null,
				"search_index": null,
				"post_registratie": null,
				"ontvangstdatum": null,
				"help": null,
				"betrokkene_id": "betrokkene-medewerker-500001",
				"dagtekeningdatum": null,
				"created": "2012-10-16 12:06:49",
				"filename": "Doc1.docx",
				"mimetype": "application/vnd.openxmlformats-officedocument.wordprocessingml.document",
				"option_order": null
			},
			"event_data": null,
			"event_type": null,
			"zaak_id": 111,
			"last_modified": 1350389209,
			"component_id": 11,
			"bericht": null,
			"created": 1350396409,
			"onderwerp": "Document \"Doc1.docx\" [11] succesvol aangemaakt",
			"component": "document",
			"deleted_on": null
		},
		{
			"loglevel": "2",
			"seen": null,
			"id": 374,
			"aanvrager_id": null,
			"is_bericht": null,
			"betrokkene_id": "betrokkene-medewerker-500001",
			"info": {
				"zaaktype_kenmerken_id": null,
				"searchable_id": 134,
				"verplicht": null,
				"uuid": null,
				"catalogus": null,
				"pid": null,
				"betrokkene": null,
				"zaakstatus": 1,
				"id": 12,
				"category": "Advies",
				"pip": null,
				"zaak_id": 111,
				"last_modified": "2012-10-16 12:07:24",
				"private": null,
				"description": null,
				"filesize": 257582,
				"documenttype": "file",
				"queue": null,
				"versie": 1,
				"md5": "7bafe62b61ff890772459e7137459b29",
				"deleted_on": null,
				"search_term": "Doc1_1.docx 12",
				"object_type": "documents",
				"status": null,
				"search_index": null,
				"post_registratie": null,
				"ontvangstdatum": "2012-10-16 00:00:00",
				"help": null,
				"betrokkene_id": "betrokkene-medewerker-500001",
				"dagtekeningdatum": null,
				"created": "2012-10-16 12:07:24",
				"filename": "Doc1_1.docx",
				"mimetype": "application/vnd.openxmlformats-officedocument.wordprocessingml.document",
				"option_order": null
			},
			"event_data": null,
			"event_type": null,
			"zaak_id": 111,
			"last_modified": 1350389244,
			"component_id": 12,
			"bericht": null,
			"created": 1350396444,
			"onderwerp": "Document \"Doc1_1.docx\" [12] succesvol aangemaakt",
			"component": "document",
			"deleted_on": null
		},
		{
			"loglevel": "2",
			"seen": null,
			"id": 381,
			"aanvrager_id": null,
			"is_bericht": null,
			"betrokkene_id": "betrokkene-medewerker-500001",
			"info": {
				"zaaktype_kenmerken_id": 77,
				"searchable_id": 136,
				"verplicht": null,
				"uuid": null,
				"catalogus": 77,
				"pid": null,
				"betrokkene": null,
				"zaakstatus": 1,
				"id": 13,
				"category": "Advies",
				"pip": 1,
				"zaak_id": 112,
				"last_modified": "2012-10-16 12:59:58",
				"private": null,
				"description": null,
				"filesize": 257582,
				"documenttype": "file",
				"queue": null,
				"versie": 1,
				"md5": "7bafe62b61ff890772459e7137459b29",
				"deleted_on": null,
				"search_term": "Doc1.docx 13",
				"object_type": "documents",
				"status": null,
				"search_index": null,
				"post_registratie": null,
				"ontvangstdatum": null,
				"help": null,
				"betrokkene_id": "betrokkene-medewerker-500001",
				"dagtekeningdatum": null,
				"created": "2012-10-16 12:59:58",
				"filename": "Doc1.docx",
				"mimetype": "application/vnd.openxmlformats-officedocument.wordprocessingml.document",
				"option_order": null
			},
			"event_data": null,
			"event_type": null,
			"zaak_id": 112,
			"last_modified": 1350392398,
			"component_id": 13,
			"bericht": null,
			"created": 1350399598,
			"onderwerp": "Document \"Doc1.docx\" [13] succesvol aangemaakt",
			"component": "document",
			"deleted_on": null
		},
		{
			"loglevel": "2",
			"seen": null,
			"id": 523,
			"aanvrager_id": null,
			"is_bericht": null,
			"betrokkene_id": "betrokkene-medewerker-500001",
			"info": {
				"zaaktype_kenmerken_id": null,
				"searchable_id": 169,
				"verplicht": null,
				"uuid": null,
				"catalogus": null,
				"pid": null,
				"betrokkene": null,
				"zaakstatus": 1,
				"id": 14,
				"category": "Email",
				"pip": null,
				"zaak_id": 141,
				"last_modified": "2012-10-22 09:14:24",
				"private": null,
				"description": null,
				"filesize": 7,
				"documenttype": "mail",
				"queue": null,
				"versie": null,
				"md5": null,
				"deleted_on": null,
				"search_term": "jw@mintlab.nl",
				"object_type": "documents",
				"status": null,
				"search_index": null,
				"post_registratie": null,
				"ontvangstdatum": null,
				"help": null,
				"betrokkene_id": "betrokkene-medewerker-500001",
				"dagtekeningdatum": null,
				"created": "2012-10-22 09:14:24",
				"filename": "jw@mintlab.nl",
				"mimetype": "text/email",
				"option_order": null
			},
			"event_data": null,
			"event_type": null,
			"zaak_id": 141,
			"last_modified": 1350897264,
			"component_id": 14,
			"bericht": null,
			"created": 1350904464,
			"onderwerp": "Document \"jw@mintlab.nl\" [14] succesvol aangemaakt",
			"component": "document",
			"deleted_on": null
		}
	]
}