{
	"trash": {
		"files": [
			{
				"id": 4,
				"name": "Trashed image.jpg",
				"type": {
					"id": 2,
					"name": "jpg"
				}
			}
		]
	},
	"intake": {
		"files": [
			{
				"id": 3,
				"name": "Nieuw document.odt",
				"type": {
					"id": 0,
					"name": "odt"
				},
				"owner": {
					"user_id": 0,
					"display_name": "Ronny"
				}
			},
			{
				"id": 3,
				"name": "Nog een nieuw document.docx",
				"type": {
					"id": 0,
					"name": "doc"
				},
				"owner": {
					"user_id": 0,
					"display_name": "Ronny"
				}
			}
		]
	},
	"list": {
		"folders": [ 
			{
				"id": 0,
				"name": "Vergunningen",
				"files": [
					{
						"id": 1,
						"name": "Document.odt",
						"type": {
							"id": 1,
							"name": "odt"
						}
					},
					{
						"id": 2,
						"name": "Vraag parkeervergunning.doc",
						"type": {
							"id": 1,
							"name": "doc"
						}
					}
				]
			}
		],
		"files": [ 
			{
				"id": 5,
				"name": "Formulier.pdf",
				"desc": "Toelichting van het document",
				"type": {
					"id": 0,
					"name": "pdf"
				}
			},
			{
				"id": 6,
				"name": "Collegevoorstel",
				"type": {
					"id": 0,
					"name": "zd"
				}
			},
			{
				"id": 7,
				"name": "Notulen.rtf",
				"type": {
					"id": 0,
					"name": "txt"
				}
			},
			{
				"id": 8,
				"name": "Paspoort-scan.jpg",
				"type": {
					"id": 0,
					"name": "jpg"
				}
			},
			{
				"id": 9,
				"name": "Paspoort-scan.png",
				"type": {
					"id": 0,
					"name": "png"
				}
			},
			{
				"id": 10,
				"name": "Paspoort-scan.gif",
				"type": {
					"id": 0,
					"name": "gif"
				}
			}
		]
	}
}