<?xml version="1.0" encoding="UTF-8" standalone="no"?>
<!-- Generator: Adobe Illustrator 16.0.4, SVG Export Plug-In . SVG Version: 6.00 Build 0)  -->

<svg
   xmlns:dc="http://purl.org/dc/elements/1.1/"
   xmlns:cc="http://creativecommons.org/ns#"
   xmlns:rdf="http://www.w3.org/1999/02/22-rdf-syntax-ns#"
   xmlns:svg="http://www.w3.org/2000/svg"
   xmlns="http://www.w3.org/2000/svg"
   xmlns:sodipodi="http://sodipodi.sourceforge.net/DTD/sodipodi-0.dtd"
   xmlns:inkscape="http://www.inkscape.org/namespaces/inkscape"
   version="1.1"
   id="Laag_1"
   x="0px"
   y="0px"
   width="100%"
   height="100%"
   viewBox="0 0 342.66704 68.215446"
   enable-background="new 0 0 595.275 841.89"
   xml:space="preserve"
   inkscape:version="0.48.5 r10040"
   sodipodi:docname="logo.svg"><metadata
     id="metadata81"><rdf:RDF><cc:Work
         rdf:about=""><dc:format>image/svg+xml</dc:format><dc:type
           rdf:resource="http://purl.org/dc/dcmitype/StillImage" /></cc:Work></rdf:RDF></metadata><defs
     id="defs79" /><sodipodi:namedview
     pagecolor="#ca2020"
     bordercolor="#666666"
     borderopacity="1"
     objecttolerance="10"
     gridtolerance="10"
     guidetolerance="10"
     inkscape:pageopacity="0"
     inkscape:pageshadow="2"
     inkscape:window-width="1690"
     inkscape:window-height="927"
     id="namedview77"
     showgrid="true"
     fit-margin-top="0"
     fit-margin-left="0"
     fit-margin-right="0"
     fit-margin-bottom="0"
     inkscape:zoom="3.5518463"
     inkscape:cx="185.29455"
     inkscape:cy="25.23244"
     inkscape:window-x="0"
     inkscape:window-y="27"
     inkscape:window-maximized="0"
     inkscape:current-layer="Laag_1"><inkscape:grid
       type="xygrid"
       id="grid3058"
       empspacing="5"
       visible="true"
       enabled="false"
       snapvisiblegridlinesonly="true"
       originx="-3.2275126e-07px"
       originy="-2.6968719e-06px" /></sodipodi:namedview><g
     id="g3"
     transform="translate(-112.34296,-377.962)"><path
       d="m 350.43,393.979 c -0.604,0 -1.989,-0.13 -2.56,-0.359 l -0.146,-0.733 c 0.782,0.179 1.564,0.261 2.38,0.261 0.979,0 2.788,-0.065 2.788,-1.418 0,-2.185 -4.973,-0.392 -4.973,-2.315 0,-0.603 0.521,-1.337 0.979,-1.696 -0.033,-0.032 -0.065,-0.065 -0.098,-0.098 -0.913,-0.652 -1.419,-1.19 -1.419,-2.397 0,-1.761 1.614,-2.821 3.229,-2.821 0.326,0 0.685,0.114 0.945,0.114 h 2.267 v 0.734 l -1.108,-0.163 c 0.587,0.505 0.848,1.271 0.848,2.021 0,1.843 -1.533,2.854 -3.245,2.854 -0.261,0 -0.521,-0.016 -0.782,-0.016 -0.18,0.196 -0.506,0.571 -0.506,0.848 0,1.288 5.071,-0.277 5.071,2.576 -0.001,1.989 -2.039,2.592 -3.67,2.608 z m 0.097,-11.021 c -1.223,0 -1.728,1.141 -1.728,2.217 0,1.027 0.424,2.234 1.63,2.234 1.223,0 1.729,-1.142 1.729,-2.218 0,-1.027 -0.424,-2.233 -1.631,-2.233 z"
       id="path5"
       inkscape:connector-curvature="0"
       style="fill:#ffffff" /><path
       d="m 356.821,385.843 c -0.017,0.229 -0.032,0.473 -0.032,0.701 0,1.924 0.814,3 2.788,3 0.538,0 1.092,-0.065 1.63,-0.163 l -0.195,0.734 c -0.701,0.147 -1.435,0.245 -2.136,0.245 -2.267,0 -3.489,-1.549 -3.489,-3.734 0,-2.12 1.125,-4.223 3.489,-4.223 2.07,0 2.82,1.533 2.82,3.392 v 0.049 h -4.875 z m 1.859,-2.902 c -1.189,0 -1.81,1.337 -1.858,2.364 h 3.358 c 0,0 0.017,-0.261 0.017,-0.293 -10e-4,-0.978 -0.376,-2.071 -1.517,-2.071 z"
       id="path7"
       inkscape:connector-curvature="0"
       style="fill:#ffffff" /><path
       d="m 372.621,390.197 v -4.973 c 0,-0.978 -0.392,-2.021 -1.533,-2.021 -0.554,0 -1.255,0.603 -1.614,1.011 v 5.984 h -1.32 v -4.973 c 0,-0.978 -0.392,-2.021 -1.532,-2.021 -0.571,0 -1.256,0.57 -1.614,0.995 v 6 h -1.321 v -7.549 l 1.321,-0.277 v 1.076 c 0.717,-0.652 1.304,-1.043 2.315,-1.043 0.88,0 1.614,0.343 1.939,1.207 0.686,-0.717 1.5,-1.207 2.512,-1.207 1.5,0 2.168,1.109 2.168,2.495 v 5.299 h -1.321 z"
       id="path9"
       inkscape:connector-curvature="0"
       style="fill:#ffffff" /><path
       d="m 377.431,385.843 c -0.017,0.229 -0.032,0.473 -0.032,0.701 0,1.924 0.814,3 2.788,3 0.538,0 1.092,-0.065 1.63,-0.163 l -0.195,0.734 c -0.701,0.147 -1.435,0.245 -2.136,0.245 -2.267,0 -3.489,-1.549 -3.489,-3.734 0,-2.12 1.125,-4.223 3.489,-4.223 2.07,0 2.82,1.533 2.82,3.392 v 0.049 h -4.875 z m 1.858,-2.902 c -1.189,0 -1.81,1.337 -1.858,2.364 h 3.358 c 0,0 0.017,-0.261 0.017,-0.293 0,-0.978 -0.375,-2.071 -1.517,-2.071 z"
       id="path11"
       inkscape:connector-curvature="0"
       style="fill:#ffffff" /><path
       d="m 384.898,385.843 c -0.017,0.229 -0.032,0.473 -0.032,0.701 0,1.924 0.814,3 2.788,3 0.538,0 1.092,-0.065 1.63,-0.163 l -0.195,0.734 c -0.701,0.147 -1.435,0.245 -2.136,0.245 -2.267,0 -3.489,-1.549 -3.489,-3.734 0,-2.12 1.125,-4.223 3.489,-4.223 2.07,0 2.82,1.533 2.82,3.392 v 0.049 h -4.875 z m 1.859,-2.902 c -1.189,0 -1.81,1.337 -1.858,2.364 h 3.359 c 0,0 0.016,-0.261 0.016,-0.293 -10e-4,-0.978 -0.376,-2.071 -1.517,-2.071 z"
       id="path13"
       inkscape:connector-curvature="0"
       style="fill:#ffffff" /><path
       d="m 396.573,390.197 v -4.973 c 0,-0.962 -0.392,-2.021 -1.533,-2.021 -0.636,0 -1.467,0.554 -1.924,0.995 v 6 h -1.32 v -7.549 l 1.32,-0.277 v 1.06 c 0.733,-0.668 1.614,-1.027 2.608,-1.027 1.501,0 2.169,1.109 2.169,2.495 v 5.299 h -1.32 z"
       id="path15"
       inkscape:connector-curvature="0"
       style="fill:#ffffff" /><path
       d="m 404.056,390.197 c -0.505,0.098 -1.043,0.163 -1.549,0.163 -1.354,0 -1.81,-0.701 -1.81,-1.989 v -5.315 h -0.896 v -0.538 h 0.896 v -1.826 l 1.32,-0.277 v 2.104 h 1.712 v 0.538 h -1.712 v 4.973 c 0,1.043 0.18,1.516 1.288,1.516 0.311,0 0.636,-0.033 0.946,-0.082 l -0.195,0.733 z"
       id="path17"
       inkscape:connector-curvature="0"
       style="fill:#ffffff" /><path
       d="m 406.453,385.843 c -0.017,0.229 -0.032,0.473 -0.032,0.701 0,1.924 0.814,3 2.788,3 0.538,0 1.092,-0.065 1.63,-0.163 l -0.195,0.734 c -0.701,0.147 -1.435,0.245 -2.136,0.245 -2.267,0 -3.489,-1.549 -3.489,-3.734 0,-2.12 1.125,-4.223 3.489,-4.223 2.07,0 2.82,1.533 2.82,3.392 v 0.049 h -4.875 z m 1.859,-2.902 c -1.189,0 -1.81,1.337 -1.858,2.364 h 3.359 c 0,0 0.016,-0.261 0.016,-0.293 -0.001,-0.978 -0.376,-2.071 -1.517,-2.071 z"
       id="path19"
       inkscape:connector-curvature="0"
       style="fill:#ffffff" /></g><path
     d="m 62.270036,49.718996 c -7.535,0 -11.032,-7.077 -11.032,-13.821 0,-6.869 3.622,-14.57 11.49,-14.528 7.785,0 11.073,6.827 11.073,13.738 0.001,7.076 -3.413,14.569 -11.531,14.611 z m 0.458,-26.185 c -5.037,0 -5.953,8.409 -5.953,12.114 0,3.497 0.875,11.905 5.703,11.905 4.871,0 5.745,-8.7 5.745,-12.238 0,-3.497 -0.624,-11.781 -5.495,-11.781 z"
     id="path21"
     inkscape:connector-curvature="0"
     style="fill:#ffffff" /><path
     d="m 87.206036,49.177996 -0.042,-1.874 c -1.499,1.291 -3.372,2.248 -5.454,2.248 -3.955,-0.041 -4.704,-4.828 -4.704,-7.867 v -11.657 l 4.829,-0.999 v 12.364 c 0,1.541 0.167,4.913 2.373,4.954 1.166,0 2.206,-0.749 2.956,-1.582 v -14.737 l 4.871,-0.999 v 20.148 h -4.829 z"
     id="path23"
     inkscape:connector-curvature="0"
     style="fill:#ffffff" /><path
     d="m 106.60504,49.177996 v -16.984 c -0.791,-0.5 -1.666,-0.791 -2.623,-0.791 -3.039,0.042 -3.497,5.662 -3.497,7.826 0.042,2.498 0.5,8.284 3.955,8.284 0.625,0 1.291,-0.042 1.874,-0.291 l -0.458,1.998 c -0.958,0.332 -2.207,0.457 -3.206,0.457 -5.328004,0.042 -7.368004,-5.244 -7.368004,-9.866 0,-4.662 2.331,-10.698 7.826004,-10.657 1.208,0 2.456,0.333 3.539,0.958 v -10.282 l 4.871,-1 v 30.348 h -4.913 z"
     id="path25"
     inkscape:connector-curvature="0"
     style="fill:#ffffff" /><path
     d="m 119.55104,38.395996 v 0.333 c 0,3.996 0.624,8.326 5.745,8.326 1.248,0 2.497,-0.292 3.704,-0.708 l -0.582,2.373 c -1.832,0.666 -3.788,0.916 -5.703,0.916 -5.745,0.041 -8.326,-4.371 -8.368,-9.658 0,-5.245 2.581,-10.782 8.534,-10.782 5.412,0 7.077,4.579 7.077,9.2 h -10.407 z m 5.453,-2.54 c 0,-2.04 -0.25,-4.663 -2.456,-4.663 -2.373,0 -3.039,3.664 -3.08,5.454 1.831,0 5.536,0 5.536,0 v -0.791 z"
     id="path27"
     inkscape:connector-curvature="0"
     style="fill:#ffffff" /><path
     d="m 143.15404,49.177996 v -27.142 h 4.787 v 27.142 h -4.787 z"
     id="path29"
     inkscape:connector-curvature="0"
     style="fill:#ffffff" /><path
     d="m 150.89604,58.627996 -1.04,-1.707 c 3.746,-0.291 4.204,-5.079 4.204,-7.993 v -26.892 h 4.787 v 25.935 c 0,5.495 -1.54,10.615 -7.951,10.657 z"
     id="path31"
     inkscape:connector-curvature="0"
     style="fill:#ffffff" /><path
     d="m 168.42104,49.594996 c -1.665,0 -3.289,-0.459 -4.829,-1.041 l -0.583,-2.457 c 1.457,0.75 3.081,1.291 4.746,1.291 1.665,0 3.33,-1.207 3.33,-2.955 0.042,-4.039 -7.951,-3.831 -7.993,-9.159 0,-3.622 3.081,-6.12 6.578,-6.12 1.332,0 2.872,0.458 3.996,1.083 l 0.624,2.498 c -1.29,-0.666 -2.664,-1.332 -4.163,-1.332 -1.332,0 -2.58,0.916 -2.58,2.331 -0.042,3.539 8.034,3.497 8.034,9.45 0,4.287 -3.247,6.452 -7.16,6.411 z"
     id="path33"
     inkscape:connector-curvature="0"
     style="fill:#ffffff" /><path
     d="m 183.11604,49.594996 c -1.665,0 -3.289,-0.459 -4.829,-1.041 l -0.583,-2.457 c 1.457,0.75 3.081,1.291 4.746,1.291 1.665,0 3.33,-1.207 3.33,-2.955 0.042,-4.039 -7.951,-3.831 -7.993,-9.159 0,-3.622 3.081,-6.12 6.578,-6.12 1.332,0 2.872,0.458 3.997,1.083 l 0.623,2.498 c -1.289,-0.666 -2.664,-1.332 -4.163,-1.332 -1.332,0 -2.58,0.916 -2.58,2.331 -0.042,3.539 8.034,3.497 8.034,9.45 0,4.287 -3.246,6.452 -7.16,6.411 z"
     id="path35"
     inkscape:connector-curvature="0"
     style="fill:#ffffff" /><path
     d="m 197.22704,38.395996 v 0.333 c 0,3.996 0.625,8.326 5.746,8.326 1.248,0 2.496,-0.292 3.703,-0.708 l -0.582,2.373 c -1.832,0.666 -3.787,0.916 -5.703,0.916 -5.744,0.041 -8.326,-4.371 -8.367,-9.658 0,-5.245 2.58,-10.782 8.533,-10.782 5.412,0 7.078,4.579 7.078,9.2 h -10.408 z m 5.453,-2.54 c 0,-2.04 -0.25,-4.663 -2.455,-4.663 -2.373,0 -3.039,3.664 -3.08,5.454 1.83,0 5.535,0 5.535,0 v -0.791 z"
     id="path37"
     inkscape:connector-curvature="0"
     style="fill:#ffffff" /><path
     d="m 210.75704,49.177996 v -29.348 l 4.871,-1 v 30.348 h -4.871 z"
     id="path39"
     inkscape:connector-curvature="0"
     style="fill:#ffffff" /><path
     d="m 224.20204,49.594996 c -1.664,0 -3.289,-0.459 -4.828,-1.041 l -0.584,-2.457 c 1.457,0.75 3.082,1.291 4.746,1.291 1.666,0 3.33,-1.207 3.33,-2.955 0.043,-4.039 -7.951,-3.831 -7.992,-9.159 0,-3.622 3.08,-6.12 6.578,-6.12 1.332,0 2.871,0.458 3.996,1.083 l 0.623,2.498 c -1.289,-0.666 -2.664,-1.332 -4.162,-1.332 -1.332,0 -2.58,0.916 -2.58,2.331 -0.043,3.539 8.033,3.497 8.033,9.45 0,4.287 -3.246,6.452 -7.16,6.411 z"
     id="path41"
     inkscape:connector-curvature="0"
     style="fill:#ffffff" /><path
     d="m 244.10004,48.760996 c -1.666,0.417 -3.373,0.791 -5.078,0.791 -3.207,-0.041 -3.955,-2.414 -3.955,-5.119 v -13.155 h -2.041 v -1.707 h 2.041 v -4.537 l 4.828,-1 v 5.537 h 3.955 v 1.707 h -3.955 v 12.239 c 0,1.915 0.25,3.122 2.457,3.165 0.748,0 1.457,-0.125 2.164,-0.334 l -0.416,2.413 z"
     id="path43"
     inkscape:connector-curvature="0"
     style="fill:#ffffff" /><path
     d="m 257.00504,34.565996 c -0.457,-0.541 -1.207,-1.124 -1.998,-1.124 -1.582,0 -2.664,2.04 -3.205,3.289 v 12.447 h -4.787 l -0.041,-19.149 4.828,-0.999 v 4.205 c 0.666,-1.54 2.123,-4.08 3.996,-4.038 0.875,0 1.707,0.333 2.414,0.791 l -1.207,4.578 z"
     id="path45"
     inkscape:connector-curvature="0"
     style="fill:#ffffff" /><path
     d="m 263.74904,38.395996 v 0.333 c 0,3.996 0.623,8.326 5.744,8.326 1.248,0 2.498,-0.292 3.705,-0.708 l -0.582,2.373 c -1.832,0.666 -3.789,0.916 -5.703,0.916 -5.746,0.041 -8.326,-4.371 -8.369,-9.658 0,-5.245 2.582,-10.782 8.535,-10.782 5.412,0 7.076,4.579 7.076,9.2 h -10.406 z m 5.453,-2.54 c 0,-2.04 -0.25,-4.663 -2.457,-4.663 -2.373,0 -3.039,3.664 -3.08,5.454 1.832,0 5.537,0 5.537,0 v -0.791 z"
     id="path47"
     inkscape:connector-curvature="0"
     style="fill:#ffffff" /><path
     d="m 280.44004,38.395996 v 0.333 c 0,3.996 0.625,8.326 5.746,8.326 1.248,0 2.496,-0.292 3.703,-0.708 l -0.582,2.373 c -1.832,0.666 -3.787,0.916 -5.703,0.916 -5.744,0.041 -8.326,-4.371 -8.367,-9.658 0,-5.245 2.58,-10.782 8.533,-10.782 5.412,0 7.078,4.579 7.078,9.2 h -10.408 z m 5.453,-2.54 c 0,-2.04 -0.25,-4.663 -2.455,-4.663 -2.373,0 -3.039,3.664 -3.08,5.454 1.83,0 5.535,0 5.535,0 v -0.791 z"
     id="path49"
     inkscape:connector-curvature="0"
     style="fill:#ffffff" /><path
     d="m 298.79804,49.177996 c 0.043,0 -4.828,0 -4.828,0 v -29.348 l 4.871,-1 -0.043,30.348 z m 6.785,0.499 -6.742,-11.198 7.492,-8.909 h 3.205 l -6.535,7.951 7.244,11.239 -4.664,0.917 z"
     id="path51"
     inkscape:connector-curvature="0"
     style="fill:#ffffff" /><g
     id="g53"
     transform="translate(-112.34296,-377.962)"><path
       d="m 378.645,435.671 c 1.629,0.893 3.344,1.507 5.182,1.671 l -0.02,0.326 c 2.338,0.432 4.777,1.72 7.23,0.619 2.359,0.104 4.524,0.556 6.703,1.113 -0.805,0.148 -1.621,0.189 -2.405,0.011 1.867,0.919 4.407,1.057 6.676,1.389 l 0.422,0.601 c 1.085,0.252 2.262,0.277 3.433,0.248 -0.098,0.174 -0.348,0.04 -0.45,0.162 2.934,1.012 6.323,0.888 9.382,1.45 l -0.057,-0.481 c 1.932,0.968 4.203,0.811 6.361,1.209 2.105,-1.06 4.346,0.033 6.661,-0.236 l 1.498,-0.23 c -0.024,0.273 -0.116,0.502 -0.091,0.715 2.638,-0.524 4.892,0.188 7.575,-0.451 -0.199,-0.193 -0.803,-0.34 -1.277,-0.392 4.036,0.396 8.664,0.829 13.418,-0.16 l 6.124,-0.825 c -6.557,1.636 -13.71,2.688 -20.752,3.186 -22.993,2.092 -44.133,-1.563 -63.993,-9.324 l -9.225,-2.953 c 1.024,-0.294 8.405,-0.62 8.405,-0.62 4.956,1.747 3.935,2.122 9.2,2.972 z"
       id="path55"
       inkscape:connector-curvature="0"
       style="fill:#ffffff" /></g><g
     id="g57"
     transform="translate(-112.34296,-377.962)"><path
       d="m 112.483,414.173 c -0.058,0.079 -0.31,0.344 0.049,0.132 0.136,-0.08 2.771,-1.786 2.771,-1.786 l 1.19,-1.591 -4.01,3.245 z"
       id="path59"
       inkscape:connector-curvature="0"
       style="fill:#ffffff" /><path
       d="m 123.676,404.713 c -0.664,0.414 -3.983,2.89 -2.812,2.675 0.601,-0.109 0.611,0.057 0.462,0.179 -0.177,0.145 3.971,-3.407 3.971,-3.407 0,0 -2.831,2.469 -4.224,3.055 -0.339,0.142 -0.295,-0.009 -0.114,-0.192 0.347,-0.351 1.778,-1.6 2.717,-2.31 z"
       id="path61"
       inkscape:connector-curvature="0"
       style="fill:#ffffff" /><path
       d="m 130.167,400.5 c -0.181,0.267 -0.825,0.804 -0.996,1.055 -0.13,0.192 -0.035,0.132 0.125,0.078 0.16,-0.054 1.795,-1.192 1.989,-1.326 0.215,-0.146 0.612,-0.433 -0.05,-0.229 -0.669,0.204 -1.068,0.422 -1.068,0.422 z"
       id="path63"
       inkscape:connector-curvature="0"
       style="fill:#ffffff" /></g><g
     id="g65"
     transform="translate(-112.34296,-377.962)"><path
       d="m 268.347,387.925 -0.526,-0.163 c 0.16,0.12 0.34,0.151 0.526,0.163 z"
       id="path67"
       inkscape:connector-curvature="0"
       style="fill:#ffffff" /><path
       d="m 255.421,381.362 -0.1,0.199 c -3.4,-0.699 -7.1,-0.6 -10.1,-2.199 -5.4,0.399 -10.7,-1 -16.2,-1.2 0.6,-0.2 1.4,0.1 1.9,-0.2 -12,0 -24.5,0.2 -36.2,1.7 -5.1,0.7 -10.4,1.3 -15.1,2.7 -14.1,3 -27.7,6.899 -40.1,13.699 9.5,-4.3 19.6,-7 29.5,-10.199 11.5,-1.9 22.4,-5 34.3,-5.601 l 0.5,0.5 c -2.3,0.4 -4.8,0.5 -7.2,0.8 l 2.1,0.101 -6.4,1.1 c 8.1,-1.399 16.6,-1.7 25.2,-2 -4.6,-0.3 -9.2,0.5 -13.6,-0.3 3.9,-0.6 8,-0.7 12.2,-0.8 8.4,0.2 16.9,0.3 24.8,1.8 l -0.6,0.2 c 1.6,-0.5 3.7,-0.4 5.2,0.1 l -0.5,0.5 c 4.3,0.2 8.4,1.4 12.3,2.3 -0.4,0.101 -0.8,0.301 -1.3,0.2 2.1,0.3 4,0.9 5.8,1.8 l 0.2,-0.399 c 0.7,-0.101 1.3,0.1 1.9,0.2 1.5,1.199 3.6,0.699 5.3,1.3 v 0.3 c -0.299,-0.06 -0.596,-0.021 -0.874,-0.037 l 4.974,1.537 0.101,-0.3 c 1.1,-0.101 1.899,0.6 2.8,1 l -0.9,0.899 -7.6,-1.699 c 2.2,0.8 5,0.699 6.8,2.399 l -0.1,0.101 c -0.101,-0.101 -0.3,-0.101 -0.4,-0.101 l 20.101,7 -0.801,-0.8 c 1.4,0.4 2.7,1.2 3.9,2.1 2.535,0.051 4.711,0.952 6.787,2.101 1.252,-0.663 2.801,-1.322 4.521,-1.86 -16.869,-8.326 -34.276,-15.319 -53.109,-18.941 z"
       id="path69"
       inkscape:connector-curvature="0"
       style="fill:#ffffff" /><polygon
       points="190.621,382.262 189.321,382.662 191.221,382.262 "
       id="polygon71"
       style="fill:#ffffff" /><path
       d="m 194.921,383.162 c -1.7,0 -3.4,0.399 -5,0.6 1.7,0.2 3.4,-0.3 5,-0.6 z"
       id="path73"
       inkscape:connector-curvature="0"
       style="fill:#ffffff" /><line
       x1="254.021"
       y1="385.06201"
       x2="253.521"
       y2="385.06201"
       id="line75"
       style="fill:#ffffff" /></g></svg>