<?xml version="1.0" encoding="utf-8"?>
<!-- Generator: Adobe Illustrator 20.0.0, SVG Export Plug-In . SVG Version: 6.00 Build 0)  -->
<!DOCTYPE svg PUBLIC "-//W3C//DTD SVG 1.1//EN" "http://www.w3.org/Graphics/SVG/1.1/DTD/svg11.dtd">
<svg version="1.1" xmlns="http://www.w3.org/2000/svg" xmlns:xlink="http://www.w3.org/1999/xlink" x="0px" y="0px"
	 viewBox="0 0 17.1 17" style="enable-background:new 0 0 17.1 17;" xml:space="preserve">
<style type="text/css">
	.st0{display:none;}
	.st1{display:inline;}
	.st2{fill:#FF0000;}
	.st3{fill:#707070;}
</style>
<g id="Laag_1" class="st0">
	<g class="st1">
		<path class="st2" d="M8.6,0.2c2.4,0.1,4.3,0.9,5.9,2.4s2.4,3.5,2.4,5.9c-0.1,2.4-0.9,4.3-2.4,5.9s-3.5,2.4-5.9,2.4
			c-2.4-0.1-4.3-0.9-5.9-2.4s-2.4-3.5-2.4-5.9c0.1-2.4,0.9-4.3,2.4-5.9S6.2,0.3,8.6,0.2z M11.6,4.4l-3,3l-3-3L4.4,5.5l3,3l-3,3
			l1.2,1.2l3-3l3,3l1.2-1.2l-3-3l3-3L11.6,4.4z"/>
	</g>
</g>
<g id="Laag_2">
	<g>
		<path class="st3" d="M15.2,5.4l0,0.4c0,2.3-0.9,4.5-2.5,6.5c-1.6,2-4,3-7.2,3.1c-1,0-1.9-0.1-2.8-0.4c-0.9-0.3-1.7-0.6-2.4-1.1
			c0.3,0,0.5,0,0.8,0c0.8,0,1.5-0.1,2.3-0.4c0.7-0.2,1.4-0.6,1.9-1.1c-0.7,0-1.4-0.3-2-0.7c-0.6-0.4-1-1-1.2-1.7
			c0.2,0,0.4,0.1,0.6,0.1c0.3,0,0.6,0,0.9-0.1C2.9,9.9,2.3,9.6,1.8,9C1.3,8.3,1,7.6,1,6.8v0C1.5,7,2,7.1,2.6,7.2
			C2.1,6.9,1.7,6.5,1.5,6c-0.3-0.5-0.4-1-0.4-1.6c0-0.6,0.1-1.2,0.4-1.7c0.8,1,1.9,1.9,3.1,2.5c1.2,0.6,2.5,1,3.9,1.1
			C8.4,5.9,8.4,5.7,8.4,5.4c0-1,0.4-1.8,1-2.4c0.6-0.6,1.4-1,2.4-1c1,0,1.9,0.4,2.5,1.1c0.8-0.1,1.5-0.4,2.1-0.8
			c-0.3,0.8-0.8,1.4-1.5,1.9c0.7-0.1,1.3-0.3,1.9-0.6C16.4,4.3,15.8,4.9,15.2,5.4z"/>
	</g>
</g>
</svg>
