<?xml version="1.0" encoding="UTF-8" standalone="no"?>
<svg width="112px" height="124px" viewBox="0 0 112 124" version="1.1" xmlns="http://www.w3.org/2000/svg" xmlns:xlink="http://www.w3.org/1999/xlink">
    <!-- Generator: Sketch 3.6.1 (26313) - http://www.bohemiancoding.com/sketch -->
    <title>object verwijderen</title>
    <desc>Created with Sketch.</desc>
    <defs></defs>
    <g id="Page-1" stroke="none" stroke-width="1" fill="none" fill-rule="evenodd">
        <g id="object-mutation-relate" transform="translate(-9.000000, -2.000000)">
            <g id="object-verwijderen" transform="translate(9.000000, 2.000000)">
                <path d="M111.180227,89.7503307 C110.987205,92.2676125 109.925599,94.107137 107.995377,95.2689594 L59.0644959,122.571649 C58.0993849,123.346197 56.9412691,123.733466 55.5901137,123.733466 C54.2389584,123.733466 53.0808426,123.346197 52.1157316,122.571649 L3.18485027,95.2689594 C1.25462833,94.107137 0.193022193,92.2676125 0,89.7503307 L0,33.9831349 C0.193022193,31.4658531 1.25462833,29.6263286 3.18485027,28.4645062 L52.1157316,1.16181658 C53.0808426,0.38726832 54.2389584,0 55.5901137,0 C56.9412691,0 58.0993849,0.38726832 59.0644959,1.16181658 L107.995377,28.4645062 C109.925599,29.6263286 110.987205,31.4658531 111.180227,33.9831349 L111.180227,89.7503307 Z" id="-copy-2" fill="#DA2B09"></path>
                <g id="close-copy" transform="translate(30.000000, 36.000000)" fill="#FFFFFF">
                    <path d="M50.875373,5.10374362 L45.7878357,0 L25.4376865,20.4149745 L5.0875373,0 L7.10542736e-15,5.10374362 L20.3501492,25.5187181 L7.10542736e-15,45.9336926 L5.0875373,51.0374362 L25.4376865,30.6224617 L45.7878357,51.0374362 L50.875373,45.9336926 L30.5252238,25.5187181 L50.875373,5.10374362 Z" id="Shape"></path>
                </g>
            </g>
        </g>
    </g>
</svg>